(module LOGO (layer F.Cu)
  (at 0 0)
 (fp_text reference "G***" (at 0 0) (layer F.SilkS) hide
  (effects (font (thickness 0.3)))
  )
  (fp_text value "LOGO" (at 0.75 0) (layer F.SilkS) hide
  (effects (font (thickness 0.3)))
  )
  (fp_poly (pts (xy -3.358444 4.967111) (xy -3.471333 4.967111) (xy -3.542022 4.960692) (xy -3.581342 4.944654) (xy -3.584222 4.938164) (xy -3.605568 4.929375) (xy -3.659749 4.948384) (xy -3.667487 4.952275)
     (xy -3.770413 4.990203) (xy -3.856963 4.982219) (xy -3.933194 4.936841) (xy -3.965496 4.909021) (xy -3.986763 4.878529) (xy -3.999297 4.833753) (xy -4.005403 4.763081) (xy -4.007386 4.654904)
     (xy -4.007424 4.633856) (xy -3.777893 4.633856) (xy -3.776566 4.735114) (xy -3.772202 4.802377) (xy -3.768917 4.818807) (xy -3.733818 4.850158) (xy -3.681490 4.845610) (xy -3.632233 4.811429)
     (xy -3.609359 4.769556) (xy -3.596049 4.683500) (xy -3.590632 4.567154) (xy -3.593102 4.446005) (xy -3.603452 4.345540) (xy -3.609474 4.318000) (xy -3.643622 4.261379) (xy -3.698383 4.247445)
     (xy -3.730653 4.249718) (xy -3.751345 4.263608) (xy -3.763548 4.299719) (xy -3.770349 4.368656) (xy -3.774838 4.481024) (xy -3.775847 4.513438) (xy -3.777893 4.633856) (xy -4.007424 4.633856)
     (xy -4.007555 4.562120) (xy -4.004398 4.395931) (xy -3.992890 4.277101) (xy -3.969981 4.196790) (xy -3.932620 4.146163) (xy -3.877756 4.116382) (xy -3.850952 4.108509) (xy -3.763460 4.108555)
     (xy -3.696767 4.130497) (xy -3.636590 4.153948) (xy -3.600925 4.155809) (xy -3.600028 4.155065) (xy -3.592338 4.121056) (xy -3.586716 4.046015) (xy -3.584253 3.945350) (xy -3.584222 3.932296)
     (xy -3.584222 3.725333) (xy -3.358444 3.725333) (xy -3.358444 4.967111) )(layer F.SilkS) (width  0.010000)
  )
  (fp_poly (pts (xy -2.928899 4.480278) (xy -2.925221 4.628309) (xy -2.920650 4.729253) (xy -2.913377 4.792460) (xy -2.901594 4.827281) (xy -2.883492 4.843066) (xy -2.857545 4.849124) (xy -2.810702 4.842819)
     (xy -2.776909 4.804677) (xy -2.754545 4.728823) (xy -2.741986 4.609384) (xy -2.737608 4.440486) (xy -2.737555 4.414941) (xy -2.737555 4.120445) (xy -2.511778 4.120445) (xy -2.511778 4.967111)
     (xy -2.624667 4.967111) (xy -2.695356 4.960692) (xy -2.734675 4.944654) (xy -2.737555 4.938164) (xy -2.758901 4.929375) (xy -2.813083 4.948384) (xy -2.820821 4.952275) (xy -2.932763 4.990072)
     (xy -3.037951 4.979158) (xy -3.048000 4.975748) (xy -3.091565 4.953472) (xy -3.122463 4.916937) (xy -3.142766 4.857337) (xy -3.154547 4.765868) (xy -3.159877 4.633726) (xy -3.160889 4.496050)
     (xy -3.160889 4.120445) (xy -2.936797 4.120445) (xy -2.928899 4.480278) )(layer F.SilkS) (width  0.010000)
  )
  (fp_poly (pts (xy 1.071038 4.122208) (xy 1.078576 4.124533) (xy 1.162520 4.164918) (xy 1.219019 4.229470) (xy 1.252361 4.327351) (xy 1.266837 4.467723) (xy 1.268250 4.529667) (xy 1.261117 4.699428)
     (xy 1.234711 4.822273) (xy 1.186495 4.905191) (xy 1.113929 4.955173) (xy 1.113735 4.955255) (xy 0.982135 4.988589) (xy 0.847347 4.987136) (xy 0.772075 4.967349) (xy 0.707158 4.929919)
     (xy 0.662996 4.872865) (xy 0.636199 4.786517) (xy 0.623376 4.661205) (xy 0.620889 4.536215) (xy 0.621433 4.472924) (xy 0.824201 4.472924) (xy 0.824387 4.594337) (xy 0.837332 4.708156)
     (xy 0.861222 4.797964) (xy 0.892250 4.845977) (xy 0.936158 4.875989) (xy 0.962969 4.873077) (xy 0.999873 4.838095) (xy 1.023282 4.798619) (xy 1.037173 4.730349) (xy 1.043205 4.622361)
     (xy 1.043790 4.548818) (xy 1.040739 4.407230) (xy 1.030159 4.313677) (xy 1.009018 4.259926) (xy 0.974285 4.237747) (xy 0.929291 4.237920) (xy 0.881260 4.258214) (xy 0.851323 4.311646)
     (xy 0.838589 4.360333) (xy 0.824201 4.472924) (xy 0.621433 4.472924) (xy 0.622004 4.406583) (xy 0.627073 4.320164) (xy 0.638680 4.263746) (xy 0.659409 4.224115) (xy 0.688291 4.191588)
     (xy 0.793469 4.124613) (xy 0.925138 4.100785) (xy 1.071038 4.122208) )(layer F.SilkS) (width  0.010000)
  )
  (fp_poly (pts (xy 2.116667 4.967111) (xy 2.020241 4.967111) (xy 1.952688 4.959262) (xy 1.915250 4.940076) (xy 1.913843 4.937195) (xy 1.883832 4.926455) (xy 1.819769 4.951132) (xy 1.707915 4.990638)
     (xy 1.612481 4.980093) (xy 1.548293 4.941447) (xy 1.521424 4.916639) (xy 1.502599 4.886360) (xy 1.490056 4.840455) (xy 1.482034 4.768771) (xy 1.476771 4.661150) (xy 1.472507 4.507439)
     (xy 1.472425 4.504003) (xy 1.463182 4.120445) (xy 1.691596 4.120445) (xy 1.699520 4.463149) (xy 1.704095 4.611753) (xy 1.710711 4.713701) (xy 1.720854 4.778778) (xy 1.736013 4.816769)
     (xy 1.756304 4.836615) (xy 1.804158 4.854192) (xy 1.840270 4.835443) (xy 1.866387 4.775717) (xy 1.884251 4.670366) (xy 1.895609 4.514738) (xy 1.897950 4.459111) (xy 1.909994 4.134556)
     (xy 2.013331 4.125796) (xy 2.116667 4.117037) (xy 2.116667 4.967111) )(layer F.SilkS) (width  0.010000)
  )
  (fp_poly (pts (xy 2.750880 4.123154) (xy 2.838858 4.165881) (xy 2.894481 4.226335) (xy 2.906889 4.276317) (xy 2.900370 4.321862) (xy 2.870134 4.341758) (xy 2.800165 4.346220) (xy 2.797292 4.346222)
     (xy 2.720395 4.339268) (xy 2.682613 4.313519) (xy 2.672934 4.289778) (xy 2.638679 4.247129) (xy 2.583023 4.232813) (xy 2.533424 4.252047) (xy 2.525733 4.261808) (xy 2.518287 4.321590)
     (xy 2.565606 4.385649) (xy 2.666322 4.452322) (xy 2.694010 4.466442) (xy 2.822942 4.543425) (xy 2.899609 4.624696) (xy 2.928173 4.715933) (xy 2.923612 4.779668) (xy 2.896004 4.860072)
     (xy 2.854361 4.921228) (xy 2.853763 4.921775) (xy 2.791994 4.952322) (xy 2.695709 4.974433) (xy 2.586579 4.985046) (xy 2.486277 4.981096) (xy 2.462951 4.977013) (xy 2.394047 4.940124)
     (xy 2.330526 4.872700) (xy 2.291000 4.796960) (xy 2.286000 4.765750) (xy 2.296968 4.731010) (xy 2.339280 4.715742) (xy 2.398889 4.713111) (xy 2.472891 4.717935) (xy 2.505560 4.737202)
     (xy 2.511778 4.768563) (xy 2.534755 4.829599) (xy 2.589218 4.861041) (xy 2.653464 4.852189) (xy 2.665782 4.844492) (xy 2.709451 4.788087) (xy 2.698596 4.724586) (xy 2.634377 4.656116)
     (xy 2.526041 4.588937) (xy 2.399638 4.506094) (xy 2.321484 4.416579) (xy 2.292795 4.326004) (xy 2.314786 4.239982) (xy 2.388673 4.164124) (xy 2.428792 4.140079) (xy 2.532250 4.106379)
     (xy 2.644145 4.102028) (xy 2.750880 4.123154) )(layer F.SilkS) (width  0.010000)
  )
  (fp_poly (pts (xy -1.608667 4.797778) (xy -1.270000 4.797778) (xy -1.270000 4.967111) (xy -1.863767 4.967111) (xy -1.848555 3.739445) (xy -1.728611 3.730766) (xy -1.608667 3.722088) (xy -1.608667 4.797778) )(layer F.SilkS) (width  0.010000)
  )
  (fp_poly (pts (xy -0.846667 4.967111) (xy -1.072444 4.967111) (xy -1.072444 4.120445) (xy -0.846667 4.120445) (xy -0.846667 4.967111) )(layer F.SilkS) (width  0.010000)
  )
  (fp_poly (pts (xy -0.105195 4.121830) (xy -0.043069 4.166074) (xy -0.005570 4.195210) (xy 0.028542 4.185929) (xy 0.059937 4.159617) (xy 0.137663 4.119944) (xy 0.236203 4.107936) (xy 0.330776 4.123765)
     (xy 0.387689 4.157340) (xy 0.408651 4.186774) (xy 0.423694 4.232836) (xy 0.434163 4.305224) (xy 0.441404 4.413635) (xy 0.446759 4.567768) (xy 0.447269 4.587087) (xy 0.457094 4.967111)
     (xy 0.225778 4.967111) (xy 0.225778 4.647950) (xy 0.221664 4.470207) (xy 0.208514 4.344708) (xy 0.185118 4.267798) (xy 0.150266 4.235821) (xy 0.102746 4.245121) (xy 0.094017 4.250115)
     (xy 0.057468 4.282725) (xy 0.032005 4.334418) (xy 0.015690 4.414581) (xy 0.006586 4.532604) (xy 0.002813 4.691945) (xy 0.000000 4.967111) (xy -0.197555 4.967111) (xy -0.197555 4.672615)
     (xy -0.201698 4.489845) (xy -0.215180 4.359133) (xy -0.239588 4.276625) (xy -0.276504 4.238470) (xy -0.327514 4.240817) (xy -0.366889 4.260906) (xy -0.386208 4.285958) (xy -0.400120 4.338497)
     (xy -0.409829 4.427042) (xy -0.416538 4.560108) (xy -0.418641 4.627363) (xy -0.428060 4.967111) (xy -0.649111 4.967111) (xy -0.649111 4.120445) (xy -0.536222 4.120445) (xy -0.465529 4.126603)
     (xy -0.426211 4.141987) (xy -0.423333 4.148210) (xy -0.401333 4.155373) (xy -0.346606 4.138830) (xy -0.327534 4.130292) (xy -0.211390 4.100351) (xy -0.105195 4.121830) )(layer F.SilkS) (width  0.010000)
  )
  (fp_poly (pts (xy 3.330222 4.967111) (xy 3.104445 4.967111) (xy 3.104445 4.120445) (xy 3.330222 4.120445) (xy 3.330222 4.967111) )(layer F.SilkS) (width  0.010000)
  )
  (fp_poly (pts (xy 4.087254 4.106435) (xy 4.142387 4.136156) (xy 4.167313 4.156581) (xy 4.184585 4.183425) (xy 4.195604 4.226435) (xy 4.201765 4.295361) (xy 4.204466 4.399949) (xy 4.205106 4.549948)
     (xy 4.205111 4.573600) (xy 4.205111 4.967111) (xy 4.007556 4.967111) (xy 4.007556 4.647950) (xy 4.004189 4.477275) (xy 3.992819 4.356950) (xy 3.971540 4.281209) (xy 3.938449 4.244287)
     (xy 3.891641 4.240420) (xy 3.874397 4.244921) (xy 3.837582 4.264248) (xy 3.811873 4.300831) (xy 3.795386 4.363514) (xy 3.786237 4.461140) (xy 3.782543 4.602553) (xy 3.782163 4.677833)
     (xy 3.781778 4.967111) (xy 3.665597 4.967111) (xy 3.592777 4.964222) (xy 3.563109 4.949913) (xy 3.563380 4.915723) (xy 3.566434 4.903611) (xy 3.572971 4.851829) (xy 3.578410 4.756824)
     (xy 3.582207 4.631813) (xy 3.583820 4.490014) (xy 3.583837 4.480278) (xy 3.584222 4.120445) (xy 3.680648 4.120445) (xy 3.748201 4.128294) (xy 3.785639 4.147480) (xy 3.787046 4.150361)
     (xy 3.817057 4.161101) (xy 3.881120 4.136423) (xy 3.992096 4.096888) (xy 4.087254 4.106435) )(layer F.SilkS) (width  0.010000)
  )
  (fp_poly (pts (xy -0.887277 3.728324) (xy -0.855156 3.746788) (xy -0.846919 3.794964) (xy -0.846667 3.824111) (xy -0.850084 3.887355) (xy -0.871186 3.915461) (xy -0.926245 3.922668) (xy -0.959555 3.922889)
     (xy -1.031834 3.919899) (xy -1.063955 3.901435) (xy -1.072192 3.853258) (xy -1.072444 3.824111) (xy -1.069027 3.760867) (xy -1.047925 3.732761) (xy -0.992866 3.725554) (xy -0.959555 3.725333)
     (xy -0.887277 3.728324) )(layer F.SilkS) (width  0.010000)
  )
  (fp_poly (pts (xy 3.289612 3.728324) (xy 3.321733 3.746788) (xy 3.329970 3.794964) (xy 3.330222 3.824111) (xy 3.326805 3.887355) (xy 3.305703 3.915461) (xy 3.250644 3.922668) (xy 3.217333 3.922889)
     (xy 3.145055 3.919899) (xy 3.112934 3.901435) (xy 3.104697 3.853258) (xy 3.104445 3.824111) (xy 3.107862 3.760867) (xy 3.128964 3.732761) (xy 3.184023 3.725554) (xy 3.217333 3.725333)
     (xy 3.289612 3.728324) )(layer F.SilkS) (width  0.010000)
  )
  (fp_poly (pts (xy 2.674576 -1.980647) (xy 2.682151 -1.326444) (xy 4.233333 -1.326444) (xy 4.233333 -1.018804) (xy 3.539528 -1.010347) (xy 2.845722 -1.001889) (xy 2.763417 -0.909721) (xy 2.681111 -0.817554)
     (xy 2.681324 0.543723) (xy 2.681965 0.835899) (xy 2.683720 1.112007) (xy 2.686478 1.366069) (xy 2.690128 1.592111) (xy 2.694561 1.784157) (xy 2.699666 1.936229) (xy 2.705331 2.042353)
     (xy 2.709920 2.088445) (xy 2.756973 2.283586) (xy 2.831758 2.460033) (xy 2.927766 2.605778) (xy 3.038487 2.708814) (xy 3.050317 2.716429) (xy 3.213889 2.788467) (xy 3.412736 2.829066)
     (xy 3.635083 2.837973) (xy 3.869154 2.814931) (xy 4.103176 2.759685) (xy 4.161136 2.740517) (xy 4.318000 2.685383) (xy 4.318000 3.023439) (xy 4.082488 3.133804) (xy 3.798851 3.245594)
     (xy 3.520303 3.309651) (xy 3.232653 3.327986) (xy 2.921711 3.302610) (xy 2.906477 3.300403) (xy 2.668959 3.239170) (xy 2.461587 3.130701) (xy 2.285849 2.976394) (xy 2.143236 2.777642)
     (xy 2.035238 2.535841) (xy 2.012063 2.462863) (xy 2.002208 2.423971) (xy 1.993654 2.376386) (xy 1.986258 2.315716) (xy 1.979878 2.237568) (xy 1.974371 2.137550) (xy 1.969597 2.011267)
     (xy 1.965411 1.854328) (xy 1.961673 1.662339) (xy 1.958239 1.430907) (xy 1.954969 1.155639) (xy 1.951719 0.832143) (xy 1.948798 0.508000) (xy 1.933222 -1.284111) (xy 1.869359 -1.403643)
     (xy 1.793382 -1.514573) (xy 1.695877 -1.590892) (xy 1.559972 -1.645650) (xy 1.554276 -1.647347) (xy 1.441949 -1.680513) (xy 1.859292 -1.984396) (xy 2.010541 -2.096337) (xy 2.161878 -2.211542)
     (xy 2.300782 -2.320257) (xy 2.414733 -2.412727) (xy 2.471817 -2.461564) (xy 2.667000 -2.634850) (xy 2.674576 -1.980647) )(layer F.SilkS) (width  0.010000)
  )
  (fp_poly (pts (xy 4.205111 -5.509588) (xy 3.960693 -5.160739) (xy 3.476005 -4.516575) (xy 2.941411 -3.895493) (xy 2.359477 -3.299779) (xy 1.732771 -2.731717) (xy 1.063860 -2.193594) (xy 0.355312 -1.687694)
     (xy -0.390308 -1.216303) (xy -0.621404 -1.081634) (xy -0.859098 -0.949329) (xy -1.123916 -0.808041) (xy -1.402535 -0.664451) (xy -1.681632 -0.525242) (xy -1.947885 -0.397092) (xy -2.187972 -0.286685)
     (xy -2.328333 -0.225637) (xy -2.447487 -0.174134) (xy -2.549141 -0.127844) (xy -2.620731 -0.092628) (xy -2.647366 -0.076824) (xy -2.656242 -0.059574) (xy -2.663477 -0.020727) (xy -2.669162 0.044015)
     (xy -2.673389 0.138947) (xy -2.676247 0.268369) (xy -2.677829 0.436576) (xy -2.678226 0.647866) (xy -2.677528 0.906536) (xy -2.675827 1.216884) (xy -2.675588 1.253561) (xy -2.673401 1.561411)
     (xy -2.671119 1.818017) (xy -2.668525 2.028579) (xy -2.665400 2.198298) (xy -2.661525 2.332374) (xy -2.656682 2.436007) (xy -2.650653 2.514398) (xy -2.643218 2.572746) (xy -2.634159 2.616253)
     (xy -2.623258 2.650118) (xy -2.616181 2.667000) (xy -2.528880 2.812952) (xy -2.411214 2.923264) (xy -2.256350 3.002400) (xy -2.057455 3.054827) (xy -2.010833 3.062649) (xy -1.935684 3.077575)
     (xy -1.901039 3.101216) (xy -1.891303 3.148503) (xy -1.890889 3.177481) (xy -1.890889 3.273778) (xy -4.120444 3.273778) (xy -4.120444 3.176729) (xy -4.117141 3.117881) (xy -4.097381 3.086581)
     (xy -4.046390 3.070043) (xy -3.986389 3.060713) (xy -3.824735 3.023078) (xy -3.681525 2.962046) (xy -3.574401 2.885388) (xy -3.564009 2.874641) (xy -3.529173 2.834368) (xy -3.500219 2.792662)
     (xy -3.476605 2.744137) (xy -3.457790 2.683409) (xy -3.443232 2.605092) (xy -3.432387 2.503799) (xy -3.424714 2.374147) (xy -3.419671 2.210750) (xy -3.416715 2.008222) (xy -3.415305 1.761177)
     (xy -3.414898 1.464230) (xy -3.414889 1.393452) (xy -3.415291 1.142909) (xy -3.416438 0.910783) (xy -3.418244 0.702948) (xy -3.420623 0.525279) (xy -3.423487 0.383650) (xy -3.426751 0.283934)
     (xy -3.430327 0.232005) (xy -3.432106 0.225778) (xy -3.463482 0.234518) (xy -3.538405 0.258588) (xy -3.647116 0.294762) (xy -3.779853 0.339815) (xy -3.848383 0.363353) (xy -3.997070 0.413816)
     (xy -4.134180 0.458896) (xy -4.247382 0.494642) (xy -4.324345 0.517104) (xy -4.341490 0.521328) (xy -4.404261 0.531427) (xy -4.427449 0.518728) (xy -4.426157 0.477944) (xy -4.410361 0.439974)
     (xy -4.368213 0.407064) (xy -4.288692 0.372286) (xy -4.219222 0.347898) (xy -4.107281 0.308964) (xy -3.964401 0.257300) (xy -3.812190 0.200791) (xy -3.718278 0.165117) (xy -3.414889 0.048598)
     (xy -3.414889 -0.130352) (xy -3.432564 -0.322193) (xy -3.487598 -0.473059) (xy -3.583003 -0.586768) (xy -3.721790 -0.667137) (xy -3.873500 -0.711550) (xy -3.960004 -0.731837) (xy -4.018748 -0.750243)
     (xy -4.035460 -0.760591) (xy -4.011269 -0.777596) (xy -3.945130 -0.813493) (xy -3.846333 -0.863491) (xy -3.724166 -0.922797) (xy -3.685020 -0.941370) (xy -3.516074 -1.023714) (xy -3.327849 -1.119604)
     (xy -3.145387 -1.216085) (xy -3.016688 -1.287092) (xy -2.897267 -1.354460) (xy -2.796903 -1.410400) (xy -2.725040 -1.449697) (xy -2.691121 -1.467139) (xy -2.689795 -1.467555) (xy -2.687152 -1.440744)
     (xy -2.684833 -1.365949) (xy -2.682969 -1.251632) (xy -2.681690 -1.106256) (xy -2.681126 -0.938279) (xy -2.681111 -0.904777) (xy -2.679687 -0.700693) (xy -2.675564 -0.536078) (xy -2.668967 -0.415492)
     (xy -2.660120 -0.343495) (xy -2.652532 -0.324335) (xy -2.618605 -0.331344) (xy -2.543085 -0.363178) (xy -2.433054 -0.416079) (xy -2.295589 -0.486287) (xy -2.137771 -0.570044) (xy -1.966678 -0.663591)
     (xy -1.789390 -0.763167) (xy -1.612987 -0.865014) (xy -1.444547 -0.965374) (xy -1.439333 -0.968539) (xy -0.711622 -1.434688) (xy -0.010291 -1.931967) (xy 0.660312 -2.456466) (xy 1.295840 -3.004271)
     (xy 1.891947 -3.571471) (xy 2.444284 -4.154154) (xy 2.948506 -4.748407) (xy 3.348782 -5.277555) (xy 3.571576 -5.604204) (xy 3.776143 -5.936237) (xy 3.976443 -6.296526) (xy 4.012058 -6.364111)
     (xy 4.204001 -6.731000) (xy 4.205111 -5.509588) )(layer F.SilkS) (width  0.010000)
  )
  (fp_poly (pts (xy 1.100667 0.548137) (xy 1.100712 0.934394) (xy 1.100920 1.268436) (xy 1.101405 1.554495) (xy 1.102276 1.796801) (xy 1.103647 1.999583) (xy 1.105627 2.167073) (xy 1.108330 2.303501)
     (xy 1.111866 2.413096) (xy 1.116347 2.500090) (xy 1.121884 2.568712) (xy 1.128590 2.623193) (xy 1.136576 2.667764) (xy 1.145953 2.706654) (xy 1.156833 2.744095) (xy 1.158752 2.750335)
     (xy 1.232123 2.922672) (xy 1.331193 3.055297) (xy 1.450726 3.142525) (xy 1.549237 3.174496) (xy 1.629287 3.197157) (xy 1.664331 3.228255) (xy 1.665111 3.233925) (xy 1.656786 3.247349)
     (xy 1.627529 3.257488) (xy 1.570916 3.264765) (xy 1.480524 3.269600) (xy 1.349929 3.272416) (xy 1.172707 3.273635) (xy 1.058333 3.273778) (xy 0.451556 3.273778) (xy 0.451556 2.991556)
     (xy 0.449974 2.873085) (xy 0.445709 2.779103) (xy 0.439481 2.721557) (xy 0.434536 2.709333) (xy 0.406475 2.726823) (xy 0.349396 2.772639) (xy 0.276824 2.835827) (xy 0.181133 2.910833)
     (xy 0.058134 2.992303) (xy -0.067719 3.064199) (xy -0.084401 3.072701) (xy -0.332308 3.172524) (xy -0.580484 3.226702) (xy -0.821818 3.235789) (xy -1.049201 3.200334) (xy -1.255522 3.120890)
     (xy -1.433671 2.998008) (xy -1.468224 2.965353) (xy -1.525280 2.906697) (xy -1.572267 2.851585) (xy -1.610263 2.793943) (xy -1.640350 2.727699) (xy -1.663609 2.646781) (xy -1.681119 2.545114)
     (xy -1.693960 2.416628) (xy -1.703214 2.255249) (xy -1.709960 2.054904) (xy -1.715279 1.809520) (xy -1.719626 1.552222) (xy -1.725070 1.254961) (xy -1.731093 1.011074) (xy -1.737842 0.817493)
     (xy -1.745463 0.671149) (xy -1.754102 0.568973) (xy -1.763907 0.507896) (xy -1.770308 0.489877) (xy -1.822984 0.421518) (xy -1.895414 0.354589) (xy -1.969744 0.303395) (xy -2.028119 0.282243)
     (xy -2.029462 0.282222) (xy -2.082860 0.276129) (xy -2.087286 0.257184) (xy -2.041438 0.224386) (xy -1.944013 0.176736) (xy -1.826940 0.126789) (xy -1.673857 0.062472) (xy -1.506940 -0.009886)
     (xy -1.352993 -0.078590) (xy -1.292426 -0.106440) (xy -1.046740 -0.220968) (xy -1.038426 1.138350) (xy -1.036466 1.450419) (xy -1.034575 1.711154) (xy -1.032506 1.925662) (xy -1.030014 2.099051)
     (xy -1.026852 2.236431) (xy -1.022774 2.342909) (xy -1.017533 2.423594) (xy -1.010884 2.483594) (xy -1.002581 2.528017) (xy -0.992377 2.561973) (xy -0.980025 2.590569) (xy -0.967250 2.615234)
     (xy -0.906841 2.704162) (xy -0.833212 2.781887) (xy -0.812028 2.798679) (xy -0.761298 2.830199) (xy -0.706842 2.849764) (xy -0.633749 2.860082) (xy -0.527109 2.863861) (xy -0.451555 2.864138)
     (xy -0.317935 2.862018) (xy -0.222712 2.853928) (xy -0.147902 2.836526) (xy -0.075518 2.806472) (xy -0.037697 2.787277) (xy 0.055902 2.729239) (xy 0.166576 2.647619) (xy 0.271849 2.559104)
     (xy 0.281234 2.550496) (xy 0.454419 2.390158) (xy 0.445932 0.976357) (xy 0.443959 0.657414) (xy 0.442050 0.389935) (xy 0.439978 0.168936) (xy 0.437517 -0.010561) (xy 0.434440 -0.153539)
     (xy 0.430522 -0.264978) (xy 0.425536 -0.349860) (xy 0.419257 -0.413165) (xy 0.411458 -0.459874) (xy 0.401913 -0.494969) (xy 0.390396 -0.523430) (xy 0.376681 -0.550239) (xy 0.376630 -0.550333)
     (xy 0.301014 -0.652210) (xy 0.205460 -0.726400) (xy 0.106354 -0.760913) (xy 0.087368 -0.762000) (xy 0.038160 -0.769601) (xy 0.038795 -0.793334) (xy 0.090282 -0.834593) (xy 0.176796 -0.885594)
     (xy 0.252522 -0.929508) (xy 0.363217 -0.996636) (xy 0.496563 -1.079371) (xy 0.640240 -1.170109) (xy 0.712611 -1.216428) (xy 1.100667 -1.466003) (xy 1.100667 0.548137) )(layer F.SilkS) (width  0.010000)
  )
  (fp_poly (pts (xy -2.985873 -3.263570) (xy -2.813818 -3.186049) (xy -2.661743 -3.064626) (xy -2.537951 -2.900955) (xy -2.517970 -2.864555) (xy -2.456592 -2.688276) (xy -2.442187 -2.498616) (xy -2.472425 -2.309133)
     (xy -2.544976 -2.133388) (xy -2.657510 -1.984939) (xy -2.671424 -1.971605) (xy -2.832320 -1.858406) (xy -3.018812 -1.787119) (xy -3.216157 -1.761369) (xy -3.409612 -1.784779) (xy -3.419953 -1.787595)
     (xy -3.600046 -1.866049) (xy -3.751903 -1.987283) (xy -3.869205 -2.142064) (xy -3.945633 -2.321159) (xy -3.974869 -2.515333) (xy -3.972006 -2.594368) (xy -3.932354 -2.784720) (xy -3.847309 -2.949263)
     (xy -3.711518 -3.098273) (xy -3.707807 -3.101555) (xy -3.538875 -3.216182) (xy -3.356705 -3.280291) (xy -3.169603 -3.295535) (xy -2.985873 -3.263570) )(layer F.SilkS) (width  0.010000)
  )
)
