(module unilim (layer F.Cu) (tedit 66156752)
  (fp_text reference G*** (at 0 0) (layer F.SilkS) hide
    (effects (font (size 1.524 1.524) (thickness 0.3)))
  )
  (fp_text value LOGO (at 0.75 0) (layer F.SilkS) hide
    (effects (font (size 1.524 1.524) (thickness 0.3)))
  )
  (fp_poly (pts (xy 6.17384 -0.956888) (xy 6.19435 -0.949003) (xy 6.232138 -0.923243) (xy 6.262752 -0.885784)
    (xy 6.28326 -0.841319) (xy 6.290733 -0.794604) (xy 6.290733 -0.770467) (xy 5.949765 -0.770467)
    (xy 5.955261 -0.810684) (xy 5.969782 -0.862682) (xy 5.996364 -0.905535) (xy 6.032533 -0.937813)
    (xy 6.075818 -0.958085) (xy 6.123744 -0.96492) (xy 6.17384 -0.956888)) (layer F.Cu) (width 0.01))
  (fp_poly (pts (xy 2.423404 -0.951724) (xy 2.465282 -0.925997) (xy 2.466807 -0.924661) (xy 2.483885 -0.903141)
    (xy 2.500848 -0.871764) (xy 2.514669 -0.837354) (xy 2.522322 -0.806736) (xy 2.522984 -0.797984)
    (xy 2.523067 -0.770467) (xy 2.353734 -0.770467) (xy 2.296089 -0.770559) (xy 2.253211 -0.770967)
    (xy 2.22293 -0.771886) (xy 2.203079 -0.773516) (xy 2.191491 -0.776052) (xy 2.185998 -0.779692)
    (xy 2.184433 -0.784632) (xy 2.1844 -0.785864) (xy 2.189968 -0.821922) (xy 2.204465 -0.86184)
    (xy 2.224583 -0.897772) (xy 2.238913 -0.915087) (xy 2.280306 -0.944873) (xy 2.327277 -0.961009)
    (xy 2.37619 -0.963344) (xy 2.423404 -0.951724)) (layer F.Cu) (width 0.01))
  (fp_poly (pts (xy 6.253756 0.606464) (xy 6.278113 0.614067) (xy 6.3001 0.628006) (xy 6.304639 0.631599)
    (xy 6.341803 0.672192) (xy 6.365919 0.721745) (xy 6.373079 0.753469) (xy 6.37763 0.7874)
    (xy 6.034569 0.7874) (xy 6.040109 0.752756) (xy 6.055873 0.697047) (xy 6.082909 0.653498)
    (xy 6.120361 0.622824) (xy 6.167372 0.60574) (xy 6.219776 0.602729) (xy 6.253756 0.606464)) (layer F.Cu) (width 0.01))
  (fp_poly (pts (xy 4.321041 0.622072) (xy 4.361987 0.641598) (xy 4.394491 0.674601) (xy 4.418772 0.721458)
    (xy 4.43505 0.782545) (xy 4.443546 0.858238) (xy 4.445 0.913037) (xy 4.44073 0.996905)
    (xy 4.427871 1.066327) (xy 4.406355 1.121491) (xy 4.376111 1.162586) (xy 4.343532 1.186574)
    (xy 4.304979 1.19901) (xy 4.260409 1.201172) (xy 4.21721 1.193136) (xy 4.198032 1.185106)
    (xy 4.167148 1.163352) (xy 4.143001 1.132818) (xy 4.122989 1.08994) (xy 4.117725 1.075094)
    (xy 4.109612 1.039626) (xy 4.104145 0.99236) (xy 4.101324 0.937952) (xy 4.10115 0.881056)
    (xy 4.103623 0.82633) (xy 4.108744 0.778428) (xy 4.116513 0.742006) (xy 4.117685 0.738453)
    (xy 4.142576 0.68561) (xy 4.175342 0.647683) (xy 4.216246 0.62446) (xy 4.265553 0.615732)
    (xy 4.271434 0.615647) (xy 4.321041 0.622072)) (layer F.Cu) (width 0.01))
  (fp_poly (pts (xy -0.423432 0.604267) (xy -0.378611 0.620042) (xy -0.339651 0.648983) (xy -0.309039 0.689859)
    (xy -0.292309 0.730071) (xy -0.285613 0.751917) (xy -0.281533 0.768324) (xy -0.281961 0.780067)
    (xy -0.288794 0.78792) (xy -0.303925 0.792657) (xy -0.329248 0.795051) (xy -0.366658 0.795876)
    (xy -0.41805 0.795907) (xy -0.45335 0.795866) (xy -0.6273 0.795866) (xy -0.62161 0.764116)
    (xy -0.605738 0.706895) (xy -0.580455 0.662839) (xy -0.544676 0.630367) (xy -0.5207 0.617135)
    (xy -0.471624 0.602888) (xy -0.423432 0.604267)) (layer F.Cu) (width 0.01))
  (fp_poly (pts (xy -1.442569 0.62074) (xy -1.410106 0.630168) (xy -1.374954 0.648459) (xy -1.352566 0.662903)
    (xy -1.312366 0.690033) (xy -1.31235 0.907172) (xy -1.312333 1.124312) (xy -1.343467 1.151648)
    (xy -1.36866 1.171016) (xy -1.394602 1.186895) (xy -1.402462 1.190625) (xy -1.434003 1.198541)
    (xy -1.473822 1.201506) (xy -1.514353 1.199539) (xy -1.548031 1.192654) (xy -1.554173 1.190307)
    (xy -1.582256 1.171637) (xy -1.61119 1.141884) (xy -1.636775 1.10613) (xy -1.65481 1.069454)
    (xy -1.655354 1.067929) (xy -1.662029 1.041598) (xy -1.668144 1.004706) (xy -1.672721 0.963623)
    (xy -1.67395 0.946664) (xy -1.673943 0.863909) (xy -1.663828 0.791818) (xy -1.644059 0.731156)
    (xy -1.615093 0.682685) (xy -1.577383 0.647171) (xy -1.531384 0.625377) (xy -1.478256 0.618066)
    (xy -1.442569 0.62074)) (layer F.Cu) (width 0.01))
  (fp_poly (pts (xy 5.23303 0.603107) (xy 5.278129 0.614684) (xy 5.314009 0.637999) (xy 5.340034 0.670191)
    (xy 5.355569 0.7084) (xy 5.359976 0.749766) (xy 5.352621 0.791429) (xy 5.332866 0.830528)
    (xy 5.300077 0.864205) (xy 5.29233 0.869748) (xy 5.263764 0.881988) (xy 5.227213 0.88846)
    (xy 5.189773 0.888689) (xy 5.158544 0.882198) (xy 5.151967 0.87916) (xy 5.122633 0.857967)
    (xy 5.095395 0.829838) (xy 5.075644 0.80073) (xy 5.070827 0.789492) (xy 5.064539 0.744704)
    (xy 5.073451 0.699572) (xy 5.096534 0.658589) (xy 5.102343 0.651746) (xy 5.139528 0.620606)
    (xy 5.182154 0.604687) (xy 5.232678 0.603073) (xy 5.23303 0.603107)) (layer F.Cu) (width 0.01))
  (fp_poly (pts (xy 5.227022 1.35459) (xy 5.279708 1.360456) (xy 5.330442 1.371216) (xy 5.375858 1.38626)
    (xy 5.412591 1.404976) (xy 5.437275 1.426754) (xy 5.443114 1.436389) (xy 5.446155 1.461706)
    (xy 5.434245 1.487447) (xy 5.409171 1.51146) (xy 5.372716 1.531589) (xy 5.360211 1.536413)
    (xy 5.329594 1.54323) (xy 5.287484 1.547349) (xy 5.23911 1.548761) (xy 5.189699 1.547454)
    (xy 5.144478 1.543414) (xy 5.109923 1.536973) (xy 5.070082 1.519865) (xy 5.043592 1.495337)
    (xy 5.03078 1.466221) (xy 5.031973 1.43535) (xy 5.047499 1.405553) (xy 5.077685 1.379665)
    (xy 5.090909 1.372467) (xy 5.129257 1.359985) (xy 5.175749 1.354229) (xy 5.227022 1.35459)) (layer F.Cu) (width 0.01))
  (fp_poly (pts (xy 7.459051 -0.692151) (xy 7.458968 1.028699) (xy 7.438896 0.986366) (xy 7.415091 0.945965)
    (xy 7.383441 0.910548) (xy 7.341879 0.878621) (xy 7.288338 0.848691) (xy 7.220748 0.819266)
    (xy 7.192433 0.808456) (xy 7.132425 0.785493) (xy 7.086821 0.766032) (xy 7.053783 0.748791)
    (xy 7.03147 0.732487) (xy 7.018044 0.715839) (xy 7.011666 0.697565) (xy 7.0104 0.681566)
    (xy 7.017679 0.647586) (xy 7.038885 0.622393) (xy 7.073072 0.606679) (xy 7.119293 0.601135)
    (xy 7.120384 0.601133) (xy 7.169677 0.608222) (xy 7.217764 0.630122) (xy 7.264806 0.666007)
    (xy 7.298316 0.696281) (xy 7.34609 0.655057) (xy 7.373795 0.631191) (xy 7.400162 0.608547)
    (xy 7.419133 0.592325) (xy 7.444404 0.570817) (xy 7.400479 0.531325) (xy 7.3392 0.485578)
    (xy 7.271917 0.453874) (xy 7.196568 0.435477) (xy 7.116233 0.429656) (xy 7.040215 0.435196)
    (xy 6.974442 0.453015) (xy 6.916951 0.483659) (xy 6.913458 0.486105) (xy 6.865915 0.527858)
    (xy 6.83304 0.575841) (xy 6.81409 0.631716) (xy 6.808324 0.697145) (xy 6.809099 0.719666)
    (xy 6.815798 0.771367) (xy 6.830286 0.815995) (xy 6.85406 0.855057) (xy 6.888617 0.89006)
    (xy 6.935454 0.92251) (xy 6.996067 0.953914) (xy 7.071953 0.985778) (xy 7.074431 0.986737)
    (xy 7.132363 1.00975) (xy 7.176294 1.028853) (xy 7.208366 1.045244) (xy 7.230723 1.060117)
    (xy 7.245508 1.074668) (xy 7.253067 1.086376) (xy 7.260668 1.117526) (xy 7.253778 1.148773)
    (xy 7.234552 1.177107) (xy 7.205145 1.199519) (xy 7.167713 1.212998) (xy 7.161649 1.214047)
    (xy 7.112339 1.214734) (xy 7.064787 1.201064) (xy 7.017079 1.172248) (xy 6.978258 1.138486)
    (xy 6.953023 1.11533) (xy 6.931644 1.098397) (xy 6.917286 1.090072) (xy 6.913737 1.089878)
    (xy 6.896022 1.101642) (xy 6.871928 1.119352) (xy 6.844813 1.140312) (xy 6.818039 1.161825)
    (xy 6.794964 1.181194) (xy 6.778949 1.195723) (xy 6.773333 1.202575) (xy 6.778917 1.211822)
    (xy 6.793848 1.229748) (xy 6.815394 1.253163) (xy 6.82625 1.264366) (xy 6.890051 1.317616)
    (xy 6.961642 1.356086) (xy 7.039987 1.379449) (xy 7.12405 1.387376) (xy 7.197636 1.381967)
    (xy 7.275468 1.364563) (xy 7.339868 1.336951) (xy 7.390984 1.299039) (xy 7.428961 1.250737)
    (xy 7.438921 1.231899) (xy 7.458968 1.189566) (xy 7.459051 1.801283) (xy 7.459133 2.413)
    (xy 2.300817 2.412272) (xy 2.006168 2.41222) (xy 1.715804 2.412148) (xy 1.430183 2.412056)
    (xy 1.149761 2.411946) (xy 0.874995 2.411818) (xy 0.606342 2.411672) (xy 0.344257 2.411509)
    (xy 0.089199 2.41133) (xy -0.158376 2.411136) (xy -0.398012 2.410927) (xy -0.629252 2.410703)
    (xy -0.851639 2.410466) (xy -1.064716 2.410216) (xy -1.268027 2.409953) (xy -1.461115 2.409679)
    (xy -1.643523 2.409394) (xy -1.814794 2.409098) (xy -1.974472 2.408792) (xy -2.122101 2.408478)
    (xy -2.257222 2.408154) (xy -2.37938 2.407823) (xy -2.488118 2.407485) (xy -2.582979 2.40714)
    (xy -2.663506 2.406789) (xy -2.729243 2.406433) (xy -2.779733 2.406072) (xy -2.814519 2.405707)
    (xy -2.833145 2.405339) (xy -2.836333 2.405082) (xy -2.779217 2.379723) (xy -2.725882 2.341317)
    (xy -2.680918 2.293733) (xy -2.653903 2.25135) (xy -2.641691 2.223081) (xy -2.632244 2.190728)
    (xy -2.625276 2.151918) (xy -2.6205 2.104277) (xy -2.617629 2.045434) (xy -2.616376 1.973016)
    (xy -2.616264 1.939996) (xy -2.6162 1.776025) (xy -2.63525 1.780716) (xy -2.65004 1.785163)
    (xy -2.677232 1.794065) (xy -2.713264 1.80623) (xy -2.754574 1.820468) (xy -2.765174 1.824165)
    (xy -2.911697 1.86835) (xy -3.054724 1.897436) (xy -3.193579 1.911473) (xy -3.32759 1.910512)
    (xy -3.456081 1.894604) (xy -3.578378 1.863801) (xy -3.693807 1.818153) (xy -3.801695 1.757712)
    (xy -3.821841 1.744176) (xy -3.857165 1.717101) (xy -3.898246 1.681435) (xy -3.941579 1.640648)
    (xy -3.983658 1.598209) (xy -4.020979 1.55759) (xy -4.050037 1.52226) (xy -4.059715 1.508662)
    (xy -4.073653 1.488391) (xy -4.08154 1.478095) (xy 4.817705 1.478095) (xy 4.824712 1.530637)
    (xy 4.847118 1.577297) (xy 4.884529 1.617623) (xy 4.936552 1.651164) (xy 5.002795 1.677467)
    (xy 5.063648 1.692585) (xy 5.09852 1.697032) (xy 5.145405 1.699716) (xy 5.199478 1.700689)
    (xy 5.255917 1.700004) (xy 5.309898 1.697715) (xy 5.356599 1.693875) (xy 5.389034 1.689007)
    (xy 5.458345 1.668601) (xy 5.521117 1.638819) (xy 5.574681 1.601465) (xy 5.616365 1.55834)
    (xy 5.639885 1.519766) (xy 5.65188 1.47913) (xy 5.656384 1.430728) (xy 5.653527 1.381214)
    (xy 5.643437 1.337242) (xy 5.636039 1.320015) (xy 5.614025 1.286126) (xy 5.585935 1.258128)
    (xy 5.550014 1.235338) (xy 5.504507 1.217074) (xy 5.447658 1.202652) (xy 5.377713 1.191391)
    (xy 5.292915 1.182607) (xy 5.280064 1.18156) (xy 5.213875 1.175864) (xy 5.16261 1.170256)
    (xy 5.124267 1.164296) (xy 5.096847 1.157543) (xy 5.078348 1.149556) (xy 5.066768 1.139894)
    (xy 5.06259 1.133642) (xy 5.057819 1.111297) (xy 5.068598 1.092846) (xy 5.093876 1.078869)
    (xy 5.132598 1.06994) (xy 5.183711 1.066637) (xy 5.18498 1.066632) (xy 5.27905 1.061169)
    (xy 5.359748 1.045344) (xy 5.427066 1.019159) (xy 5.480996 0.982618) (xy 5.493339 0.970897)
    (xy 5.5286 0.927115) (xy 5.552158 0.878254) (xy 5.553589 0.872066) (xy 5.810959 0.872066)
    (xy 5.812057 0.973304) (xy 5.825709 1.066457) (xy 5.851558 1.15033) (xy 5.88925 1.223724)
    (xy 5.93163 1.278371) (xy 5.976482 1.317023) (xy 6.031289 1.350061) (xy 6.089162 1.373629)
    (xy 6.112933 1.379821) (xy 6.151504 1.384465) (xy 6.200695 1.385435) (xy 6.254677 1.383071)
    (xy 6.307619 1.377718) (xy 6.353693 1.369716) (xy 6.373268 1.364539) (xy 6.409993 1.350666)
    (xy 6.447804 1.332717) (xy 6.468539 1.320796) (xy 6.49349 1.302451) (xy 6.520565 1.278895)
    (xy 6.546584 1.253397) (xy 6.568368 1.229225) (xy 6.58274 1.209647) (xy 6.586762 1.199234)
    (xy 6.579826 1.191174) (xy 6.561245 1.176684) (xy 6.533967 1.157918) (xy 6.505551 1.13985)
    (xy 6.424646 1.090134) (xy 6.385206 1.128356) (xy 6.345143 1.162751) (xy 6.30707 1.184624)
    (xy 6.265535 1.196666) (xy 6.240023 1.200003) (xy 6.186696 1.197475) (xy 6.139384 1.180538)
    (xy 6.100702 1.150252) (xy 6.092158 1.140032) (xy 6.073597 1.108578) (xy 6.056599 1.067591)
    (xy 6.043609 1.024259) (xy 6.037074 0.985771) (xy 6.036733 0.977145) (xy 6.036733 0.948266)
    (xy 6.587067 0.948266) (xy 6.586942 0.865716) (xy 6.585506 0.82229) (xy 6.581787 0.778078)
    (xy 6.576485 0.740583) (xy 6.57432 0.730163) (xy 6.54914 0.654825) (xy 6.511671 0.586695)
    (xy 6.463758 0.528215) (xy 6.407248 0.481826) (xy 6.371167 0.461378) (xy 6.344275 0.44958)
    (xy 6.319072 0.441865) (xy 6.290085 0.437127) (xy 6.251842 0.43426) (xy 6.23262 0.433385)
    (xy 6.158769 0.434067) (xy 6.095956 0.443348) (xy 6.040098 0.462209) (xy 5.987114 0.491627)
    (xy 5.985594 0.492638) (xy 5.929127 0.539494) (xy 5.883889 0.597428) (xy 5.849605 0.667033)
    (xy 5.826001 0.748907) (xy 5.812803 0.843644) (xy 5.810959 0.872066) (xy 5.553589 0.872066)
    (xy 5.565515 0.820515) (xy 5.569342 0.778364) (xy 5.570525 0.739251) (xy 5.56878 0.710244)
    (xy 5.563164 0.684629) (xy 5.552736 0.655694) (xy 5.551811 0.653394) (xy 5.540545 0.621561)
    (xy 5.537036 0.601576) (xy 5.539304 0.5956) (xy 5.551666 0.592325) (xy 5.575718 0.588901)
    (xy 5.606088 0.586082) (xy 5.6642 0.581924) (xy 5.6642 0.4318) (xy 5.611283 0.431985)
    (xy 5.556784 0.438258) (xy 5.506685 0.455446) (xy 5.466291 0.481678) (xy 5.46385 0.483912)
    (xy 5.445534 0.501106) (xy 5.408817 0.479819) (xy 5.356163 0.454609) (xy 5.300376 0.439328)
    (xy 5.237009 0.433057) (xy 5.184541 0.433591) (xy 5.142765 0.43596) (xy 5.11208 0.439593)
    (xy 5.086641 0.445853) (xy 5.060606 0.456103) (xy 5.034323 0.468635) (xy 4.9699 0.508383)
    (xy 4.920015 0.556806) (xy 4.884611 0.613996) (xy 4.863627 0.680048) (xy 4.857004 0.7493)
    (xy 4.862378 0.813558) (xy 4.880447 0.869522) (xy 4.912807 0.921098) (xy 4.93945 0.951259)
    (xy 4.959084 0.971999) (xy 4.972494 0.987294) (xy 4.976855 0.993915) (xy 4.976819 0.993944)
    (xy 4.928447 1.025503) (xy 4.894054 1.054668) (xy 4.871499 1.084228) (xy 4.85864 1.116969)
    (xy 4.853394 1.154599) (xy 4.854916 1.197979) (xy 4.866566 1.23159) (xy 4.890615 1.259447)
    (xy 4.926637 1.28402) (xy 4.969701 1.308883) (xy 4.932147 1.318927) (xy 4.893469 1.336543)
    (xy 4.859207 1.365251) (xy 4.834287 1.400334) (xy 4.82649 1.420123) (xy 4.817705 1.478095)
    (xy -4.08154 1.478095) (xy -4.083486 1.475556) (xy -4.086081 1.473199) (xy -4.09326 1.478294)
    (xy -4.111215 1.492368) (xy -4.137677 1.513604) (xy -4.170375 1.540186) (xy -4.192906 1.558656)
    (xy -4.317879 1.655473) (xy -4.43894 1.73726) (xy -4.555762 1.803861) (xy -4.668018 1.855122)
    (xy -4.775383 1.89089) (xy -4.877529 1.91101) (xy -4.948766 1.915729) (xy -5.024814 1.912402)
    (xy -5.091987 1.900306) (xy -5.156703 1.877939) (xy -5.201714 1.856547) (xy -5.249651 1.826164)
    (xy -5.301206 1.784091) (xy -5.352772 1.733951) (xy -5.400742 1.679369) (xy -5.441509 1.623969)
    (xy -5.455437 1.601634) (xy -5.506045 1.505448) (xy -5.553207 1.396121) (xy -5.595534 1.277322)
    (xy -5.63164 1.152719) (xy -5.643372 1.104899) (xy -5.652473 1.06634) (xy -5.660508 1.033191)
    (xy -5.666519 1.009351) (xy -5.669312 0.999343) (xy -5.674678 1.0011) (xy -5.68614 1.016198)
    (xy -5.70242 1.042736) (xy -5.720516 1.075543) (xy -5.784849 1.187663) (xy -5.860816 1.304344)
    (xy -5.945419 1.421633) (xy -6.035656 1.535577) (xy -6.128527 1.64222) (xy -6.221031 1.73761)
    (xy -6.228069 1.744391) (xy -6.312318 1.819225) (xy -6.391954 1.877792) (xy -6.467044 1.920097)
    (xy -6.537656 1.946145) (xy -6.603855 1.955943) (xy -6.66571 1.949496) (xy -6.723287 1.92681)
    (xy -6.776653 1.887892) (xy -6.825875 1.832747) (xy -6.849174 1.798741) (xy -6.875947 1.751532)
    (xy -6.905593 1.690904) (xy -6.936929 1.619878) (xy -6.968768 1.541476) (xy -6.999927 1.458718)
    (xy -7.029222 1.374625) (xy -7.055468 1.292219) (xy -7.075952 1.220309) (xy -7.087308 1.176787)
    (xy -7.09546 1.142061) (xy -7.100947 1.111631) (xy -7.104307 1.080999) (xy -7.106077 1.045664)
    (xy -7.106796 1.001126) (xy -7.106964 0.960966) (xy -7.106717 0.903264) (xy -7.105339 0.855858)
    (xy -7.102323 0.813221) (xy -7.097163 0.769826) (xy -7.089352 0.720147) (xy -7.080164 0.668368)
    (xy -7.069122 0.609547) (xy -7.056765 0.546465) (xy -7.044303 0.485131) (xy -7.032946 0.431553)
    (xy -7.028191 0.410135) (xy -7.016967 0.358831) (xy -7.010108 0.322963) (xy -7.007496 0.301639)
    (xy -7.009011 0.293966) (xy -7.013101 0.297038) (xy -7.09892 0.407876) (xy -7.17709 0.506108)
    (xy -7.249019 0.593435) (xy -7.316114 0.671558) (xy -7.379784 0.74218) (xy -7.394302 0.757766)
    (xy -7.449861 0.817033) (xy -7.450264 0.562122) (xy -7.450666 0.307211) (xy -7.342717 0.209476)
    (xy -7.267804 0.139895) (xy -7.190308 0.064695) (xy -7.112612 -0.013606) (xy -7.037104 -0.092492)
    (xy -6.966169 -0.169444) (xy -6.902192 -0.241947) (xy -6.84756 -0.307483) (xy -6.822903 -0.338932)
    (xy -6.808728 -0.355763) (xy -6.799024 -0.364055) (xy -6.79714 -0.364067) (xy -6.793625 -0.354727)
    (xy -6.786549 -0.33243) (xy -6.776938 -0.300518) (xy -6.765862 -0.262467) (xy -6.750806 -0.21353)
    (xy -6.731772 -0.15684) (xy -6.711454 -0.10021) (xy -6.696376 -0.060928) (xy -6.680819 -0.020715)
    (xy -6.667911 0.014997) (xy -6.658863 0.042685) (xy -6.654885 0.058825) (xy -6.6548 0.06012)
    (xy -6.658721 0.075211) (xy -6.669125 0.10017) (xy -6.683972 0.130234) (xy -6.688136 0.137982)
    (xy -6.747052 0.253695) (xy -6.802309 0.377706) (xy -6.852849 0.506778) (xy -6.897612 0.637671)
    (xy -6.935541 0.76715) (xy -6.965578 0.891975) (xy -6.986664 1.008909) (xy -6.994819 1.076448)
    (xy -7.000293 1.177788) (xy -6.996358 1.265155) (xy -6.983019 1.338523) (xy -6.960285 1.397866)
    (xy -6.928162 1.443156) (xy -6.896634 1.468684) (xy -6.875311 1.481021) (xy -6.856616 1.488625)
    (xy -6.835294 1.492628) (xy -6.806089 1.494159) (xy -6.777217 1.494366) (xy -6.739643 1.493953)
    (xy -6.71233 1.491696) (xy -6.689013 1.486072) (xy -6.663428 1.475558) (xy -6.629311 1.458628)
    (xy -6.628386 1.458156) (xy -6.515543 1.391579) (xy -6.405786 1.308858) (xy -6.299464 1.21056)
    (xy -6.196925 1.097251) (xy -6.098516 0.9695) (xy -6.004587 0.827871) (xy -5.915484 0.672932)
    (xy -5.831557 0.50525) (xy -5.753154 0.325392) (xy -5.680622 0.133923) (xy -5.61431 -0.068588)
    (xy -5.554566 -0.281576) (xy -5.550895 -0.295859) (xy -5.521804 -0.409685) (xy -5.512111 -0.372059)
    (xy -5.497187 -0.316144) (xy -5.483494 -0.270454) (xy -5.468843 -0.228631) (xy -5.451044 -0.184316)
    (xy -5.433626 -0.144064) (xy -5.416578 -0.103366) (xy -5.402084 -0.064942) (xy -5.391702 -0.03318)
    (xy -5.387031 -0.012831) (xy -5.388012 0.007316) (xy -5.393359 0.041843) (xy -5.402639 0.088888)
    (xy -5.415416 0.146593) (xy -5.431259 0.213098) (xy -5.449733 0.286543) (xy -5.470405 0.365068)
    (xy -5.492841 0.446813) (xy -5.500545 0.474133) (xy -5.530107 0.583108) (xy -5.553185 0.679783)
    (xy -5.570315 0.767269) (xy -5.58203 0.848678) (xy -5.588863 0.927119) (xy -5.591332 1.003299)
    (xy -5.590963 1.06175) (xy -5.588148 1.108234) (xy -5.581833 1.147662) (xy -5.570964 1.184943)
    (xy -5.554486 1.224988) (xy -5.535089 1.265256) (xy -5.506878 1.311053) (xy -5.469476 1.356919)
    (xy -5.427549 1.39786) (xy -5.385768 1.428886) (xy -5.377705 1.433536) (xy -5.305556 1.463245)
    (xy -5.224753 1.478765) (xy -5.135796 1.480154) (xy -5.039184 1.467469) (xy -4.935414 1.440769)
    (xy -4.824986 1.400112) (xy -4.734487 1.358716) (xy -4.669605 1.324271) (xy -4.66068 1.319037)
    (xy -3.920067 1.319037) (xy -3.912755 1.327097) (xy -3.892927 1.339988) (xy -3.863739 1.356135)
    (xy -3.828349 1.373963) (xy -3.789915 1.391899) (xy -3.751595 1.408367) (xy -3.716547 1.421794)
    (xy -3.7084 1.424579) (xy -3.666201 1.436994) (xy -3.61908 1.448526) (xy -3.5814 1.455936)
    (xy -3.548989 1.461328) (xy -3.522186 1.46601) (xy -3.506209 1.469067) (xy -3.5052 1.469297)
    (xy -3.483224 1.471697) (xy -3.448036 1.47226) (xy -3.403233 1.471205) (xy -3.35241 1.468751)
    (xy -3.299165 1.465115) (xy -3.247093 1.460515) (xy -3.199791 1.455171) (xy -3.160856 1.4493)
    (xy -3.153833 1.447972) (xy -3.089711 1.433058) (xy -3.01775 1.412627) (xy -2.941659 1.388043)
    (xy -2.865148 1.36067) (xy -2.791925 1.331873) (xy -2.7257 1.303015) (xy -2.670181 1.275461)
    (xy -2.644252 1.260556) (xy -2.6162 1.243218) (xy -2.6162 0.855957) (xy -1.902842 0.855957)
    (xy -1.902575 0.95025) (xy -1.891664 1.039611) (xy -1.87084 1.122253) (xy -1.840835 1.196388)
    (xy -1.802379 1.260226) (xy -1.756205 1.311981) (xy -1.703044 1.349865) (xy -1.700189 1.351377)
    (xy -1.643981 1.37325) (xy -1.580434 1.385825) (xy -1.51547 1.38858) (xy -1.45501 1.380993)
    (xy -1.433279 1.3749) (xy -1.405235 1.362721) (xy -1.37145 1.34418) (xy -1.340898 1.324421)
    (xy -1.28903 1.287573) (xy -1.283457 1.329586) (xy -1.277883 1.371599) (xy -1.083733 1.371599)
    (xy -1.083733 0.914399) (xy -0.848141 0.914399) (xy -0.842071 1.017328) (xy -0.824317 1.108025)
    (xy -0.794847 1.186547) (xy -0.753626 1.252951) (xy -0.700623 1.307291) (xy -0.635804 1.349626)
    (xy -0.580077 1.373303) (xy -0.543241 1.381745) (xy -0.49514 1.386683) (xy -0.441086 1.388068)
    (xy -0.386389 1.38585) (xy -0.336363 1.379979) (xy -0.315221 1.375768) (xy -0.278757 1.365301)
    (xy -0.241752 1.351771) (xy -0.221706 1.342763) (xy -0.187024 1.321582) (xy -0.150363 1.293386)
    (xy -0.116624 1.262463) (xy -0.090711 1.233103) (xy -0.082701 1.221185) (xy -0.068036 1.195933)
    (xy -0.146766 1.148299) (xy -0.179404 1.128922) (xy -0.206812 1.113341) (xy -0.225715 1.103374)
    (xy -0.23252 1.100666) (xy -0.241846 1.106053) (xy -0.25945 1.120154) (xy -0.280818 1.139273)
    (xy -0.320027 1.171579) (xy -0.357144 1.191221) (xy -0.397861 1.200572) (xy -0.431865 1.202266)
    (xy -0.487056 1.195208) (xy -0.533039 1.174007) (xy -0.569846 1.138628) (xy -0.597512 1.089034)
    (xy -0.616069 1.025187) (xy -0.621338 0.992716) (xy -0.627116 0.948266) (xy -0.065146 0.948266)
    (xy -0.070609 0.857249) (xy -0.074139 0.813843) (xy -0.079178 0.771338) (xy -0.084923 0.735913)
    (xy -0.088335 0.720775) (xy -0.117281 0.641154) (xy -0.157523 0.573216) (xy -0.208136 0.517709)
    (xy -0.268196 0.475377) (xy -0.336776 0.446968) (xy -0.412954 0.433227) (xy -0.446349 0.432006)
    (xy -0.528632 0.438264) (xy -0.600493 0.456935) (xy -0.663721 0.488695) (xy -0.7201 0.534222)
    (xy -0.722607 0.536708) (xy -0.769896 0.594059) (xy -0.805699 0.660563) (xy -0.8304 0.737385)
    (xy -0.844388 0.825688) (xy -0.848141 0.914399) (xy -1.083733 0.914399) (xy -1.083733 0.093133)
    (xy 0.762 0.093133) (xy 0.762 1.371599) (xy 1.566334 1.371599) (xy 1.566334 1.159933)
    (xy 1.016 1.159933) (xy 1.016 0.448733) (xy 1.8288 0.448733) (xy 1.8288 1.371599)
    (xy 2.0574 1.371599) (xy 2.0574 0.448733) (xy 2.3876 0.448733) (xy 2.3876 1.371599)
    (xy 2.607734 1.371599) (xy 2.607734 0.712622) (xy 2.639782 0.687239) (xy 2.690508 0.652587)
    (xy 2.739677 0.629444) (xy 2.785112 0.618377) (xy 2.82464 0.619954) (xy 2.852277 0.631873)
    (xy 2.862634 0.639757) (xy 2.871197 0.648628) (xy 2.878134 0.660076) (xy 2.883618 0.675695)
    (xy 2.887818 0.697078) (xy 2.890905 0.725818) (xy 2.893048 0.763505) (xy 2.894419 0.811735)
    (xy 2.895188 0.872098) (xy 2.895525 0.946188) (xy 2.8956 1.035598) (xy 2.8956 1.371599)
    (xy 3.1242 1.371599) (xy 3.124462 1.039283) (xy 3.124724 0.706966) (xy 3.160445 0.680429)
    (xy 3.218028 0.643664) (xy 3.270315 0.622902) (xy 3.31744 0.618107) (xy 3.35727 0.628181)
    (xy 3.368266 0.633588) (xy 3.377368 0.639901) (xy 3.384756 0.648664) (xy 3.390608 0.661423)
    (xy 3.395104 0.67972) (xy 3.398421 0.7051) (xy 3.400739 0.739107) (xy 3.402237 0.783286)
    (xy 3.403093 0.83918) (xy 3.403486 0.908335) (xy 3.403596 0.992294) (xy 3.4036 1.028279)
    (xy 3.4036 1.371599) (xy 3.633003 1.371599) (xy 3.630485 0.988483) (xy 3.629971 0.910166)
    (xy 3.874126 0.910166) (xy 3.877477 0.997978) (xy 3.88793 1.073053) (xy 3.906371 1.138404)
    (xy 3.933688 1.197046) (xy 3.970771 1.251994) (xy 3.977188 1.260052) (xy 4.027354 1.308821)
    (xy 4.088543 1.346637) (xy 4.158238 1.372711) (xy 4.233921 1.386257) (xy 4.313073 1.386487)
    (xy 4.360675 1.380001) (xy 4.435726 1.35789) (xy 4.501092 1.322136) (xy 4.556432 1.273219)
    (xy 4.601404 1.211619) (xy 4.635667 1.137815) (xy 4.658878 1.052289) (xy 4.670697 0.955519)
    (xy 4.671305 0.943808) (xy 4.670055 0.84064) (xy 4.656816 0.747818) (xy 4.631997 0.665867)
    (xy 4.596008 0.595313) (xy 4.549258 0.536681) (xy 4.492157 0.490495) (xy 4.425114 0.457283)
    (xy 4.34854 0.437568) (xy 4.272078 0.4318) (xy 4.194211 0.436633) (xy 4.127635 0.45191)
    (xy 4.069474 0.478798) (xy 4.016853 0.518462) (xy 3.988668 0.546762) (xy 3.94753 0.598497)
    (xy 3.916422 0.653896) (xy 3.894486 0.715679) (xy 3.880864 0.786568) (xy 3.874698 0.869287)
    (xy 3.874126 0.910166) (xy 3.629971 0.910166) (xy 3.627967 0.605366) (xy 3.607737 0.560597)
    (xy 3.580766 0.516603) (xy 3.544095 0.478595) (xy 3.502254 0.450704) (xy 3.475849 0.440345)
    (xy 3.435632 0.43385) (xy 3.385659 0.432723) (xy 3.332088 0.436538) (xy 3.281073 0.444871)
    (xy 3.240676 0.456552) (xy 3.207781 0.471973) (xy 3.170736 0.493379) (xy 3.141786 0.513091)
    (xy 3.09152 0.550876) (xy 3.05192 0.50854) (xy 3.009986 0.471856) (xy 2.963133 0.447738)
    (xy 2.907985 0.434872) (xy 2.854486 0.4318) (xy 2.78757 0.436305) (xy 2.729247 0.451067)
    (xy 2.673399 0.477955) (xy 2.645933 0.495542) (xy 2.5908 0.533287) (xy 2.5908 0.448733)
    (xy 2.3876 0.448733) (xy 2.0574 0.448733) (xy 1.8288 0.448733) (xy 1.016 0.448733)
    (xy 1.016 0.093133) (xy 0.762 0.093133) (xy -1.083733 0.093133) (xy -1.312333 0.093133)
    (xy -1.312333 0.524821) (xy -1.349895 0.496149) (xy -1.394717 0.466781) (xy -1.440318 0.448108)
    (xy -1.491951 0.43852) (xy -1.545166 0.436315) (xy -1.586162 0.437315) (xy -1.616529 0.44072)
    (xy -1.642525 0.447667) (xy -1.669779 0.459006) (xy -1.734057 0.497888) (xy -1.789344 0.550149)
    (xy -1.834771 0.614308) (xy -1.86947 0.688888) (xy -1.892572 0.772406) (xy -1.902842 0.855957)
    (xy -2.6162 0.855957) (xy -2.6162 0.155942) (xy -2.616229 0.0762) (xy 1.8288 0.0762)
    (xy 1.8288 0.287866) (xy 2.0574 0.287866) (xy 2.0574 0.0762) (xy 1.8288 0.0762)
    (xy -2.616229 0.0762) (xy -2.61625 0.021738) (xy -2.616397 -0.107702) (xy -2.616634 -0.231379)
    (xy -2.616956 -0.348293) (xy -2.617357 -0.457442) (xy -2.617829 -0.557827) (xy -2.618368 -0.648447)
    (xy -2.618967 -0.728303) (xy -2.619621 -0.796394) (xy -2.620322 -0.851719) (xy -2.621065 -0.893278)
    (xy -2.621845 -0.920072) (xy -2.622654 -0.931099) (xy -2.622791 -0.931334) (xy -2.627891 -0.923761)
    (xy -2.635347 -0.90374) (xy -2.64369 -0.875319) (xy -2.645089 -0.869951) (xy -2.68029 -0.746432)
    (xy -2.725063 -0.612427) (xy -2.778278 -0.470573) (xy -2.838806 -0.323509) (xy -2.905519 -0.173871)
    (xy -2.977286 -0.024297) (xy -3.052979 0.122576) (xy -3.128088 0.258233) (xy -3.234659 0.43539)
    (xy -3.349587 0.610854) (xy -3.47063 0.781571) (xy -3.595543 0.944491) (xy -3.722083 1.09656)
    (xy -3.838377 1.224644) (xy -3.867896 1.256255) (xy -3.892667 1.283883) (xy -3.910565 1.305075)
    (xy -3.919466 1.317373) (xy -3.920067 1.319037) (xy -4.66068 1.319037) (xy -4.59751 1.281995)
    (xy -4.52289 1.234928) (xy -4.450436 1.186111) (xy -4.384836 1.138585) (xy -4.338568 1.101975)
    (xy -4.278703 1.051973) (xy -4.311279 0.951436) (xy -4.375645 0.736049) (xy -4.426616 0.527607)
    (xy -4.464653 0.323326) (xy -4.486948 0.146383) (xy -4.362116 0.146383) (xy -4.36169 0.217791)
    (xy -4.360148 0.285124) (xy -4.35749 0.344462) (xy -4.353717 0.391885) (xy -4.352503 0.402166)
    (xy -4.325789 0.56032) (xy -4.288243 0.706852) (xy -4.276014 0.745066) (xy -4.25589 0.802672)
    (xy -4.236326 0.854055) (xy -4.218224 0.89718) (xy -4.202485 0.93001) (xy -4.19001 0.950509)
    (xy -4.182357 0.956733) (xy -4.173263 0.95112) (xy -4.15453 0.935675) (xy -4.128543 0.91249)
    (xy -4.097689 0.883659) (xy -4.083419 0.869949) (xy -3.975741 0.760164) (xy -3.864392 0.636293)
    (xy -3.75083 0.500388) (xy -3.636515 0.3545) (xy -3.522907 0.200682) (xy -3.411464 0.040986)
    (xy -3.303645 -0.122537) (xy -3.200909 -0.287835) (xy -3.104716 -0.452857) (xy -3.016524 -0.61555)
    (xy -2.989331 -0.668565) (xy -2.900468 -0.852122) (xy -2.824339 -1.026123) (xy -2.760543 -1.1917)
    (xy -2.708679 -1.349984) (xy -2.676012 -1.473201) (xy -1.811866 -1.473201) (xy -1.811719 -1.026584)
    (xy -1.811626 -0.920246) (xy -1.811337 -0.829302) (xy -1.810728 -0.752213) (xy -1.809675 -0.687441)
    (xy -1.808051 -0.633446) (xy -1.805733 -0.58869) (xy -1.802596 -0.551633) (xy -1.798515 -0.520736)
    (xy -1.793364 -0.494462) (xy -1.78702 -0.47127) (xy -1.779356 -0.449621) (xy -1.770249 -0.427978)
    (xy -1.761632 -0.409186) (xy -1.722962 -0.345784) (xy -1.670776 -0.289624) (xy -1.607676 -0.24276)
    (xy -1.536264 -0.207245) (xy -1.484673 -0.190721) (xy -1.446703 -0.184332) (xy -1.397486 -0.180641)
    (xy -1.341399 -0.179515) (xy -1.282821 -0.180819) (xy -1.226129 -0.184419) (xy -1.175702 -0.190182)
    (xy -1.135917 -0.197974) (xy -1.123588 -0.201763) (xy -1.044409 -0.237137) (xy -0.979063 -0.281448)
    (xy -0.926464 -0.335625) (xy -0.885524 -0.400601) (xy -0.881444 -0.408955) (xy -0.870698 -0.432334)
    (xy -0.861549 -0.454733) (xy -0.853869 -0.477692) (xy -0.84753 -0.502752) (xy -0.842404 -0.531454)
    (xy -0.838364 -0.565339) (xy -0.835281 -0.605949) (xy -0.833028 -0.654825) (xy -0.831477 -0.713507)
    (xy -0.830501 -0.783536) (xy -0.829971 -0.866455) (xy -0.82976 -0.963803) (xy -0.829733 -1.032577)
    (xy -0.829733 -1.1176) (xy -0.491067 -1.1176) (xy -0.491067 -0.194734) (xy -0.262467 -0.194734)
    (xy -0.262467 -0.85338) (xy -0.232598 -0.879605) (xy -0.187895 -0.911649) (xy -0.139392 -0.934143)
    (xy -0.09074 -0.946164) (xy -0.045591 -0.946788) (xy -0.009377 -0.936038) (xy 0.003658 -0.928804)
    (xy 0.014471 -0.920761) (xy 0.023288 -0.91034) (xy 0.030333 -0.89597) (xy 0.035832 -0.876082)
    (xy 0.040008 -0.849104) (xy 0.043086 -0.813466) (xy 0.045293 -0.767598) (xy 0.046851 -0.709931)
    (xy 0.047987 -0.638892) (xy 0.048924 -0.552913) (xy 0.049171 -0.527051) (xy 0.052305 -0.194734)
    (xy 0.270933 -0.194734) (xy 0.270933 -0.549442) (xy 0.270889 -0.637029) (xy 0.270708 -0.709442)
    (xy 0.270316 -0.768442) (xy 0.269643 -0.815787) (xy 0.268614 -0.853239) (xy 0.267158 -0.882557)
    (xy 0.265201 -0.9055) (xy 0.262672 -0.923829) (xy 0.259498 -0.939303) (xy 0.255605 -0.953681)
    (xy 0.254043 -0.958834) (xy 0.228103 -1.017407) (xy 0.190996 -1.064478) (xy 0.144294 -1.099697)
    (xy 0.101736 -1.1176) (xy 0.601133 -1.1176) (xy 0.601133 -0.194734) (xy 0.829733 -0.194734)
    (xy 0.829733 -1.107261) (xy 1.060642 -1.107261) (xy 1.063591 -1.097285) (xy 1.070665 -1.072515)
    (xy 1.081438 -1.034467) (xy 1.095484 -0.984655) (xy 1.112376 -0.924597) (xy 1.131687 -0.855808)
    (xy 1.152991 -0.779803) (xy 1.175862 -0.698099) (xy 1.190546 -0.645588) (xy 1.316567 -0.194743)
    (xy 1.436016 -0.194738) (xy 1.555466 -0.194734) (xy 1.670953 -0.599017) (xy 1.691534 -0.671066)
    (xy 1.960092 -0.671066) (xy 1.960901 -0.609024) (xy 1.964735 -0.550844) (xy 1.971589 -0.501654)
    (xy 1.975991 -0.482601) (xy 2.000955 -0.409337) (xy 2.032731 -0.34809) (xy 2.073564 -0.294567)
    (xy 2.075441 -0.292501) (xy 2.115345 -0.252974) (xy 2.154321 -0.224565) (xy 2.1987 -0.203092)
    (xy 2.225348 -0.1935) (xy 2.26439 -0.185018) (xy 2.314698 -0.180474) (xy 2.371099 -0.179735)
    (xy 2.428422 -0.182666) (xy 2.481496 -0.189134) (xy 2.525149 -0.199007) (xy 2.532432 -0.201427)
    (xy 2.566067 -0.21518) (xy 2.599403 -0.231521) (xy 2.614505 -0.24023) (xy 2.644756 -0.261961)
    (xy 2.674095 -0.287557) (xy 2.699962 -0.314162) (xy 2.719794 -0.338917) (xy 2.73103 -0.358966)
    (xy 2.731564 -0.370813) (xy 2.72268 -0.378268) (xy 2.703149 -0.391688) (xy 2.676826 -0.408689)
    (xy 2.64757 -0.42689) (xy 2.619238 -0.443907) (xy 2.595685 -0.457359) (xy 2.580771 -0.464863)
    (xy 2.578 -0.465667) (xy 2.568786 -0.460347) (xy 2.55146 -0.446541) (xy 2.534092 -0.43116)
    (xy 2.485292 -0.393858) (xy 2.435484 -0.372018) (xy 2.381534 -0.364299) (xy 2.377568 -0.364253)
    (xy 2.336402 -0.366292) (xy 2.305041 -0.374357) (xy 2.276759 -0.390811) (xy 2.257725 -0.406344)
    (xy 2.230408 -0.439688) (xy 2.208113 -0.485695) (xy 2.19251 -0.540431) (xy 2.187521 -0.571675)
    (xy 2.182069 -0.618067) (xy 2.734734 -0.618067) (xy 2.734608 -0.700617) (xy 2.729775 -0.785795)
    (xy 2.715063 -0.860088) (xy 2.689738 -0.926866) (xy 2.681781 -0.942557) (xy 2.63774 -1.009247)
    (xy 2.584359 -1.061898) (xy 2.522029 -1.100257) (xy 2.470403 -1.1176) (xy 2.980267 -1.1176)
    (xy 2.980267 -0.194734) (xy 3.208867 -0.194734) (xy 3.208867 -0.361365) (xy 3.598334 -0.361365)
    (xy 3.604575 -0.349396) (xy 3.62122 -0.330061) (xy 3.645151 -0.306186) (xy 3.673249 -0.280598)
    (xy 3.702397 -0.256124) (xy 3.729475 -0.235589) (xy 3.751367 -0.221822) (xy 3.753383 -0.220814)
    (xy 3.796105 -0.202071) (xy 3.835353 -0.189764) (xy 3.876466 -0.182922) (xy 3.924785 -0.180572)
    (xy 3.970867 -0.181232) (xy 4.021805 -0.183713) (xy 4.060805 -0.188017) (xy 4.09283 -0.19489)
    (xy 4.118605 -0.203435) (xy 4.171758 -0.231246) (xy 4.218613 -0.270274) (xy 4.254934 -0.316608)
    (xy 4.267732 -0.341091) (xy 4.278974 -0.372251) (xy 4.284883 -0.404968) (xy 4.286659 -0.446337)
    (xy 4.286647 -0.452967) (xy 4.281946 -0.51524) (xy 4.267722 -0.568753) (xy 4.242692 -0.614982)
    (xy 4.205573 -0.655402) (xy 4.155081 -0.691489) (xy 4.089931 -0.724719) (xy 4.028806 -0.749348)
    (xy 3.966339 -0.773198) (xy 3.918395 -0.793502) (xy 3.883228 -0.811423) (xy 3.859098 -0.828122)
    (xy 3.844259 -0.844764) (xy 3.836969 -0.86251) (xy 3.8354 -0.878333) (xy 3.838096 -0.903677)
    (xy 3.844548 -0.924141) (xy 3.862189 -0.94197) (xy 3.891142 -0.956058) (xy 3.925848 -0.964092)
    (xy 3.943078 -0.965118) (xy 3.979017 -0.959154) (xy 4.019447 -0.943493) (xy 4.057772 -0.921237)
    (xy 4.084634 -0.898538) (xy 4.102094 -0.882155) (xy 4.116011 -0.872862) (xy 4.119084 -0.872067)
    (xy 4.130155 -0.877461) (xy 4.149693 -0.89167) (xy 4.174346 -0.911738) (xy 4.200763 -0.934708)
    (xy 4.225593 -0.957622) (xy 4.245485 -0.977524) (xy 4.257088 -0.991456) (xy 4.258734 -0.995298)
    (xy 4.251818 -1.008834) (xy 4.23333 -1.027634) (xy 4.206656 -1.04903) (xy 4.175185 -1.070351)
    (xy 4.142303 -1.088929) (xy 4.135967 -1.092028) (xy 4.068424 -1.116931) (xy 4.064997 -1.1176)
    (xy 4.563534 -1.1176) (xy 4.563534 -0.194734) (xy 4.792134 -0.194734) (xy 4.792134 -1.1176)
    (xy 5.0292 -1.1176) (xy 5.0292 -0.931334) (xy 5.1562 -0.931334) (xy 5.1562 -0.633866)
    (xy 5.156299 -0.548483) (xy 5.156736 -0.478238) (xy 5.157719 -0.421334) (xy 5.159459 -0.375978)
    (xy 5.162164 -0.340372) (xy 5.166043 -0.312722) (xy 5.171307 -0.291232) (xy 5.178163 -0.274107)
    (xy 5.186822 -0.259552) (xy 5.197492 -0.245771) (xy 5.202054 -0.240436) (xy 5.227794 -0.216112)
    (xy 5.258206 -0.198639) (xy 5.295968 -0.187333) (xy 5.343759 -0.18151) (xy 5.404255 -0.180488)
    (xy 5.433705 -0.181311) (xy 5.476017 -0.183247) (xy 5.512346 -0.185555) (xy 5.539272 -0.187971)
    (xy 5.553375 -0.190229) (xy 5.554355 -0.190638) (xy 5.557687 -0.200693) (xy 5.560371 -0.22404)
    (xy 5.562103 -0.25704) (xy 5.5626 -0.289354) (xy 5.562491 -0.330105) (xy 5.561767 -0.356682)
    (xy 5.559828 -0.371845) (xy 5.556077 -0.378354) (xy 5.549916 -0.378969) (xy 5.54355 -0.377281)
    (xy 5.525016 -0.373456) (xy 5.496536 -0.369385) (xy 5.471428 -0.366655) (xy 5.448656 -0.364439)
    (xy 5.430262 -0.363517) (xy 5.41578 -0.365478) (xy 5.404743 -0.371911) (xy 5.396687 -0.384402)
    (xy 5.391143 -0.404542) (xy 5.387646 -0.433919) (xy 5.385729 -0.47412) (xy 5.384926 -0.526734)
    (xy 5.384771 -0.59335) (xy 5.384799 -0.660401) (xy 5.727805 -0.660401) (xy 5.729079 -0.591832)
    (xy 5.733481 -0.535587) (xy 5.741842 -0.487214) (xy 5.754987 -0.442259) (xy 5.773744 -0.396272)
    (xy 5.779017 -0.384918) (xy 5.81431 -0.327507) (xy 5.861851 -0.275307) (xy 5.917792 -0.231531)
    (xy 5.978284 -0.19939) (xy 6.016564 -0.18667) (xy 6.050482 -0.181725) (xy 6.095738 -0.18002)
    (xy 6.147112 -0.181261) (xy 6.199381 -0.18515) (xy 6.247325 -0.191392) (xy 6.285721 -0.19969)
    (xy 6.29429 -0.202426) (xy 6.328502 -0.215985) (xy 6.362448 -0.231674) (xy 6.379947 -0.241036)
    (xy 6.401778 -0.256459) (xy 6.426891 -0.278127) (xy 6.452269 -0.302867) (xy 6.474896 -0.327508)
    (xy 6.491755 -0.348877) (xy 6.49983 -0.363803) (xy 6.499938 -0.367219) (xy 6.491844 -0.375377)
    (xy 6.472404 -0.390071) (xy 6.444742 -0.409042) (xy 6.419374 -0.425417) (xy 6.341972 -0.474126)
    (xy 6.304564 -0.436719) (xy 6.266301 -0.402891) (xy 6.229635 -0.38151) (xy 6.188801 -0.369775)
    (xy 6.159226 -0.366144) (xy 6.102942 -0.368736) (xy 6.054915 -0.38593) (xy 6.015531 -0.417336)
    (xy 5.985176 -0.462564) (xy 5.964235 -0.521224) (xy 5.955058 -0.572782) (xy 5.949735 -0.618067)
    (xy 6.5024 -0.618067) (xy 6.502275 -0.700617) (xy 6.500802 -0.744268) (xy 6.496985 -0.788922)
    (xy 6.491544 -0.826964) (xy 6.489363 -0.837413) (xy 6.463638 -0.913945) (xy 6.425212 -0.982168)
    (xy 6.375624 -1.040088) (xy 6.316412 -1.085713) (xy 6.284305 -1.103) (xy 6.25359 -1.116316)
    (xy 6.226303 -1.124789) (xy 6.196201 -1.129764) (xy 6.157038 -1.132591) (xy 6.144614 -1.133139)
    (xy 6.099374 -1.133617) (xy 6.057874 -1.131592) (xy 6.026114 -1.127391) (xy 6.021847 -1.126417)
    (xy 5.947895 -1.099626) (xy 5.88355 -1.058979) (xy 5.829069 -1.004738) (xy 5.784707 -0.937164)
    (xy 5.750722 -0.856518) (xy 5.747568 -0.846667) (xy 5.73937 -0.817845) (xy 5.733759 -0.790536)
    (xy 5.730272 -0.76039) (xy 5.728449 -0.723056) (xy 5.727827 -0.674184) (xy 5.727805 -0.660401)
    (xy 5.384799 -0.660401) (xy 5.3848 -0.661713) (xy 5.3848 -0.931334) (xy 5.5626 -0.931334)
    (xy 5.5626 -1.1176) (xy 5.3848 -1.1176) (xy 5.3848 -1.234854) (xy 5.978878 -1.234854)
    (xy 5.985619 -1.232016) (xy 6.006056 -1.229706) (xy 6.036957 -1.228174) (xy 6.072114 -1.227667)
    (xy 6.168172 -1.227667) (xy 6.2992 -1.3589) (xy 6.430229 -1.490134) (xy 6.142567 -1.490096)
    (xy 6.062133 -1.366069) (xy 6.035772 -1.325264) (xy 6.012708 -1.289269) (xy 5.994498 -1.260535)
    (xy 5.982694 -1.24151) (xy 5.978878 -1.234854) (xy 5.3848 -1.234854) (xy 5.3848 -1.422401)
    (xy 5.1562 -1.422401) (xy 5.1562 -1.1176) (xy 5.0292 -1.1176) (xy 4.792134 -1.1176)
    (xy 4.563534 -1.1176) (xy 4.064997 -1.1176) (xy 3.995908 -1.131086) (xy 3.922726 -1.134317)
    (xy 3.853187 -1.12645) (xy 3.791598 -1.107312) (xy 3.788834 -1.106069) (xy 3.728504 -1.071025)
    (xy 3.68291 -1.02768) (xy 3.651909 -0.975821) (xy 3.635359 -0.915234) (xy 3.632283 -0.871015)
    (xy 3.63599 -0.812898) (xy 3.648195 -0.762987) (xy 3.670283 -0.719721) (xy 3.703636 -0.681536)
    (xy 3.749641 -0.64687) (xy 3.80968 -0.614161) (xy 3.885138 -0.581846) (xy 3.890183 -0.579886)
    (xy 3.947899 -0.557102) (xy 3.99171 -0.538586) (xy 4.023783 -0.523276) (xy 4.046286 -0.510109)
    (xy 4.061384 -0.498023) (xy 4.065115 -0.494085) (xy 4.082047 -0.464409) (xy 4.084147 -0.433714)
    (xy 4.073169 -0.404401) (xy 4.050865 -0.378875) (xy 4.018987 -0.35954) (xy 3.979288 -0.348799)
    (xy 3.958167 -0.347402) (xy 3.915151 -0.354414) (xy 3.86863 -0.374186) (xy 3.82292 -0.404465)
    (xy 3.788769 -0.435877) (xy 3.74637 -0.481279) (xy 3.672352 -0.425998) (xy 3.642312 -0.402754)
    (xy 3.618133 -0.382503) (xy 3.60262 -0.367696) (xy 3.598334 -0.361365) (xy 3.208867 -0.361365)
    (xy 3.208867 -0.756857) (xy 3.23136 -0.789315) (xy 3.268246 -0.830823) (xy 3.314024 -0.86436)
    (xy 3.364182 -0.887362) (xy 3.414209 -0.897269) (xy 3.421797 -0.897467) (xy 3.4544 -0.897467)
    (xy 3.4544 -1.134534) (xy 3.426884 -1.134487) (xy 3.369506 -1.126239) (xy 3.313775 -1.102834)
    (xy 3.262801 -1.065985) (xy 3.223345 -1.022446) (xy 3.191934 -0.979991) (xy 3.191934 -1.1176)
    (xy 2.980267 -1.1176) (xy 2.470403 -1.1176) (xy 2.451143 -1.12407) (xy 2.389072 -1.132447)
    (xy 2.301861 -1.13036) (xy 2.22343 -1.113839) (xy 2.154098 -1.083119) (xy 2.094186 -1.038435)
    (xy 2.044014 -0.980022) (xy 2.003902 -0.908116) (xy 1.975828 -0.829057) (xy 1.967553 -0.786212)
    (xy 1.962308 -0.731839) (xy 1.960092 -0.671066) (xy 1.691534 -0.671066) (xy 1.694321 -0.68082)
    (xy 1.716776 -0.75942) (xy 1.737786 -0.832964) (xy 1.756824 -0.899599) (xy 1.773359 -0.957471)
    (xy 1.786862 -1.004728) (xy 1.796804 -1.039515) (xy 1.802655 -1.059981) (xy 1.802857 -1.060686)
    (xy 1.819273 -1.118071) (xy 1.588535 -1.113367) (xy 1.514844 -0.818649) (xy 1.497801 -0.750738)
    (xy 1.481982 -0.688178) (xy 1.467867 -0.632832) (xy 1.455936 -0.586563) (xy 1.446668 -0.551232)
    (xy 1.440545 -0.528703) (xy 1.438077 -0.520855) (xy 1.435437 -0.528057) (xy 1.429279 -0.549912)
    (xy 1.420069 -0.584612) (xy 1.408273 -0.630351) (xy 1.394356 -0.685323) (xy 1.378784 -0.747722)
    (xy 1.362065 -0.815573) (xy 1.28913 -1.113367) (xy 1.172945 -1.115728) (xy 1.125021 -1.116383)
    (xy 1.091929 -1.115967) (xy 1.071591 -1.114322) (xy 1.061929 -1.111293) (xy 1.060642 -1.107261)
    (xy 0.829733 -1.107261) (xy 0.829733 -1.1176) (xy 0.601133 -1.1176) (xy 0.101736 -1.1176)
    (xy 0.089572 -1.122717) (xy 0.028401 -1.13319) (xy -0.037643 -1.130766) (xy -0.106989 -1.115097)
    (xy -0.178062 -1.085835) (xy -0.218017 -1.063391) (xy -0.2794 -1.025457) (xy -0.2794 -1.1176)
    (xy -0.491067 -1.1176) (xy -0.829733 -1.1176) (xy -0.829733 -1.473201) (xy -1.083733 -1.473201)
    (xy -1.083733 -1.025813) (xy -1.083809 -0.923017) (xy -1.08406 -0.8358) (xy -1.084518 -0.762809)
    (xy -1.085218 -0.70269) (xy -1.086193 -0.654089) (xy -1.087478 -0.615654) (xy -1.089105 -0.586029)
    (xy -1.091108 -0.563862) (xy -1.093521 -0.5478) (xy -1.095852 -0.538158) (xy -1.117445 -0.484778)
    (xy -1.147008 -0.444549) (xy -1.186201 -0.416298) (xy -1.236685 -0.39885) (xy -1.30012 -0.391033)
    (xy -1.3043 -0.390848) (xy -1.370878 -0.391939) (xy -1.424539 -0.401812) (xy -1.467367 -0.421389)
    (xy -1.501441 -0.45159) (xy -1.526633 -0.489151) (xy -1.53491 -0.50609) (xy -1.54196 -0.524745)
    (xy -1.54788 -0.546545) (xy -1.552767 -0.572921) (xy -1.556717 -0.605302) (xy -1.559825 -0.645118)
    (xy -1.562187 -0.693799) (xy -1.563901 -0.752774) (xy -1.565061 -0.823472) (xy -1.565765 -0.907325)
    (xy -1.566108 -1.005761) (xy -1.566183 -1.077384) (xy -1.566333 -1.473201) (xy -1.811866 -1.473201)
    (xy -2.676012 -1.473201) (xy -2.671523 -1.490134) (xy 0.601133 -1.490134) (xy 0.601133 -1.278467)
    (xy 0.829733 -1.278467) (xy 0.829733 -1.490134) (xy 4.563534 -1.490134) (xy 4.563534 -1.278467)
    (xy 4.792134 -1.278467) (xy 4.792134 -1.490134) (xy 4.563534 -1.490134) (xy 0.829733 -1.490134)
    (xy 0.601133 -1.490134) (xy -2.671523 -1.490134) (xy -2.668348 -1.502108) (xy -2.639148 -1.649202)
    (xy -2.63669 -1.664538) (xy -2.62807 -1.736429) (xy -2.623057 -1.815707) (xy -2.62162 -1.897688)
    (xy -2.623727 -1.977688) (xy -2.629348 -2.051022) (xy -2.63845 -2.113006) (xy -2.639729 -2.119247)
    (xy -2.662337 -2.204423) (xy -2.690812 -2.273983) (xy -2.725495 -2.328321) (xy -2.766729 -2.367826)
    (xy -2.814854 -2.392892) (xy -2.870212 -2.403909) (xy -2.888481 -2.404534) (xy -2.948612 -2.398816)
    (xy -3.011484 -2.381319) (xy -3.077945 -2.351524) (xy -3.148845 -2.308912) (xy -3.225031 -2.252967)
    (xy -3.307353 -2.18317) (xy -3.396659 -2.099003) (xy -3.408771 -2.087034) (xy -3.561344 -1.923726)
    (xy -3.70255 -1.748545) (xy -3.831842 -1.562645) (xy -3.948671 -1.367181) (xy -4.052488 -1.163306)
    (xy -4.142743 -0.952176) (xy -4.218888 -0.734945) (xy -4.280374 -0.512768) (xy -4.326652 -0.286799)
    (xy -4.352633 -0.1016) (xy -4.356684 -0.053092) (xy -4.359614 0.007022) (xy -4.361424 0.07482)
    (xy -4.362116 0.146383) (xy -4.486948 0.146383) (xy -4.49022 0.120419) (xy -4.503778 -0.083898)
    (xy -4.506374 -0.224367) (xy -4.501976 -0.411336) (xy -4.48834 -0.590068) (xy -4.464799 -0.765107)
    (xy -4.430687 -0.940998) (xy -4.385339 -1.122283) (xy -4.363695 -1.198034) (xy -4.309352 -1.363005)
    (xy -4.244075 -1.528212) (xy -4.169247 -1.691158) (xy -4.086251 -1.849345) (xy -3.996468 -2.000277)
    (xy -3.901282 -2.141457) (xy -3.802075 -2.270388) (xy -3.715556 -2.368551) (xy -3.673575 -2.413)
    (xy 7.459133 -2.413) (xy 7.459051 -0.692151)) (layer F.Cu) (width 0.01))
)
